mldoeR • mldoeR
…
If you want to generate search-table for mixed-level designs, the mSearchtable() function is there. For example, you can generate the search-table for \(4^{1}2^{5}\) designs of resolution \(III\) in \(2^5\) runs.

mST <- mixed_searchtable(m = 1, k = 5, p = 2, R = 3)
print(mST)
#> # A tibble: 25 × 4
#>    generators f     g     h    
#>    <chr>      <chr> <chr> <chr>
#>  1 cd         cdf   cdg   cdh  
#>  2 ce         cef   ceg   ceh  
#>  3 de         def   deg   deh  
#>  4 ac         acf   acg   ach  
#>  5 bc         bcf   bcg   bch  
#>  6 abc        abcf  abcg  abch 
#>  7 ad         adf   adg   adh  
#>  8 bd         bdf   bdg   bdh  
#>  9 abd        abdf  abdg  abdh 
#> 10 ae         aef   aeg   aeh  
#> # … with 15 more rows
…
